riscv-ice40/top_tb.vcd
$date
	Sat Aug  2 20:10:55 2025
$end
$version
	Icarus Verilog
$end
$timescale
	1ps
$end
$scope module top_tb $end
$var wire 3 ! LED [2:0] $end
$var parameter 32 " CLK_PERIOD $end
$var reg 1 # CLK $end
$var reg 1 $ RESETn $end
$scope module top_inst $end
$var wire 1 # clk $end
$var wire 1 % cpu_resetn $end
$var wire 1 $ rst $end
$var wire 4 & mem_wstrb [3:0] $end
$var wire 32 ' mem_wdata [31:0] $end
$var wire 1 ( mem_valid $end
$var wire 1 ) mem_instr $end
$var wire 32 * mem_addr [31:0] $end
$var wire 3 + leds [2:0] $end
$var reg 32 , mem_rdata [31:0] $end
$var reg 1 - mem_ready $end
$scope module inst $end
$var wire 1 # clk $end
$var wire 32 . dbg_mem_addr [31:0] $end
$var wire 1 / dbg_mem_instr $end
$var wire 32 0 dbg_mem_rdata [31:0] $end
$var wire 1 1 dbg_mem_ready $end
$var wire 1 2 dbg_mem_valid $end
$var wire 32 3 dbg_mem_wdata [31:0] $end
$var wire 4 4 dbg_mem_wstrb [3:0] $end
$var wire 1 5 instr_trap $end
$var wire 32 6 irq [31:0] $end
$var wire 1 7 launch_next_insn $end
$var wire 1 8 mem_done $end
$var wire 1 9 mem_la_firstword $end
$var wire 1 : mem_la_firstword_xfer $end
$var wire 1 ; mem_la_read $end
$var wire 1 < mem_la_use_prefetched_high_word $end
$var wire 1 = mem_la_write $end
$var wire 32 > mem_rdata [31:0] $end
$var wire 32 ? mem_rdata_latched [31:0] $end
$var wire 1 - mem_ready $end
$var wire 1 @ mem_xfer $end
$var wire 32 A pcpi_div_rd [31:0] $end
$var wire 1 B pcpi_div_ready $end
$var wire 1 C pcpi_div_wait $end
$var wire 1 D pcpi_div_wr $end
$var wire 32 E pcpi_mul_rd [31:0] $end
$var wire 1 F pcpi_mul_ready $end
$var wire 1 G pcpi_mul_wait $end
$var wire 1 H pcpi_mul_wr $end
$var wire 32 I pcpi_rd [31:0] $end
$var wire 1 J pcpi_ready $end
$var wire 32 K pcpi_rs1 [31:0] $end
$var wire 32 L pcpi_rs2 [31:0] $end
$var wire 1 M pcpi_wait $end
$var wire 1 N pcpi_wr $end
$var wire 1 % resetn $end
$var wire 32 O next_pc [31:0] $end
$var wire 32 P mem_rdata_latched_noshuffle [31:0] $end
$var wire 32 Q mem_la_addr [31:0] $end
$var wire 1 R mem_busy $end
$var wire 1 S is_rdcycle_rdcycleh_rdinstr_rdinstrh $end
$var parameter 1 T BARREL_SHIFTER $end
$var parameter 1 U CATCH_ILLINSN $end
$var parameter 1 V CATCH_MISALIGN $end
$var parameter 1 W COMPRESSED_ISA $end
$var parameter 1 X ENABLE_COUNTERS $end
$var parameter 1 Y ENABLE_COUNTERS64 $end
$var parameter 1 Z ENABLE_DIV $end
$var parameter 1 [ ENABLE_FAST_MUL $end
$var parameter 1 \ ENABLE_IRQ $end
$var parameter 1 ] ENABLE_IRQ_QREGS $end
$var parameter 1 ^ ENABLE_IRQ_TIMER $end
$var parameter 1 _ ENABLE_MUL $end
$var parameter 1 ` ENABLE_PCPI $end
$var parameter 1 a ENABLE_REGS_16_31 $end
$var parameter 1 b ENABLE_REGS_DUALPORT $end
$var parameter 1 c ENABLE_TRACE $end
$var parameter 32 d LATCHED_IRQ $end
$var parameter 1 e LATCHED_MEM_RDATA $end
$var parameter 32 f MASKED_IRQ $end
$var parameter 32 g PROGADDR_IRQ $end
$var parameter 32 h PROGADDR_RESET $end
$var parameter 1 i REGS_INIT_ZERO $end
$var parameter 32 j STACKADDR $end
$var parameter 36 k TRACE_ADDR $end
$var parameter 36 l TRACE_BRANCH $end
$var parameter 36 m TRACE_IRQ $end
$var parameter 1 n TWO_CYCLE_ALU $end
$var parameter 1 o TWO_CYCLE_COMPARE $end
$var parameter 1 p TWO_STAGE_SHIFT $end
$var parameter 1 q WITH_PCPI $end
$var parameter 8 r cpu_state_exec $end
$var parameter 8 s cpu_state_fetch $end
$var parameter 8 t cpu_state_ld_rs1 $end
$var parameter 8 u cpu_state_ld_rs2 $end
$var parameter 8 v cpu_state_ldmem $end
$var parameter 8 w cpu_state_shift $end
$var parameter 8 x cpu_state_stmem $end
$var parameter 8 y cpu_state_trap $end
$var parameter 32 z irq_buserror $end
$var parameter 32 { irq_ebreak $end
$var parameter 32 | irq_timer $end
$var parameter 32 } irqregs_offset $end
$var parameter 32 ~ regfile_size $end
$var parameter 32 !" regindex_bits $end
$var reg 32 "" alu_add_sub [31:0] $end
$var reg 1 #" alu_eq $end
$var reg 1 $" alu_lts $end
$var reg 1 %" alu_ltu $end
$var reg 32 &" alu_out [31:0] $end
$var reg 1 '" alu_out_0 $end
$var reg 1 (" alu_out_0_q $end
$var reg 32 )" alu_out_q [31:0] $end
$var reg 32 *" alu_shl [31:0] $end
$var reg 32 +" alu_shr [31:0] $end
$var reg 1 ," alu_wait $end
$var reg 1 -" alu_wait_2 $end
$var reg 64 ." cached_ascii_instr [63:0] $end
$var reg 32 /" cached_insn_imm [31:0] $end
$var reg 32 0" cached_insn_opcode [31:0] $end
$var reg 5 1" cached_insn_rd [4:0] $end
$var reg 5 2" cached_insn_rs1 [4:0] $end
$var reg 5 3" cached_insn_rs2 [4:0] $end
$var reg 1 4" clear_prefetched_high_word $end
$var reg 1 5" clear_prefetched_high_word_q $end
$var reg 1 6" compressed_instr $end
$var reg 64 7" count_cycle [63:0] $end
$var reg 64 8" count_instr [63:0] $end
$var reg 8 9" cpu_state [7:0] $end
$var reg 32 :" cpuregs_rs1 [31:0] $end
$var reg 32 ;" cpuregs_rs2 [31:0] $end
$var reg 32 <" cpuregs_wrdata [31:0] $end
$var reg 1 =" cpuregs_write $end
$var reg 32 >" current_pc [31:0] $end
$var reg 64 ?" dbg_ascii_instr [63:0] $end
$var reg 128 @" dbg_ascii_state [127:0] $end
$var reg 32 A" dbg_insn_addr [31:0] $end
$var reg 32 B" dbg_insn_imm [31:0] $end
$var reg 32 C" dbg_insn_opcode [31:0] $end
$var reg 5 D" dbg_insn_rd [4:0] $end
$var reg 5 E" dbg_insn_rs1 [4:0] $end
$var reg 5 F" dbg_insn_rs2 [4:0] $end
$var reg 1 G" dbg_next $end
$var reg 32 H" dbg_rs1val [31:0] $end
$var reg 1 I" dbg_rs1val_valid $end
$var reg 32 J" dbg_rs2val [31:0] $end
$var reg 1 K" dbg_rs2val_valid $end
$var reg 1 L" dbg_valid_insn $end
$var reg 32 M" decoded_imm [31:0] $end
$var reg 32 N" decoded_imm_j [31:0] $end
$var reg 5 O" decoded_rd [4:0] $end
$var reg 5 P" decoded_rs [4:0] $end
$var reg 5 Q" decoded_rs1 [4:0] $end
$var reg 5 R" decoded_rs2 [4:0] $end
$var reg 1 S" decoder_pseudo_trigger $end
$var reg 1 T" decoder_pseudo_trigger_q $end
$var reg 1 U" decoder_trigger $end
$var reg 1 V" decoder_trigger_q $end
$var reg 1 W" do_waitirq $end
$var reg 32 X" eoi [31:0] $end
$var reg 1 Y" instr_add $end
$var reg 1 Z" instr_addi $end
$var reg 1 [" instr_and $end
$var reg 1 \" instr_andi $end
$var reg 1 ]" instr_auipc $end
$var reg 1 ^" instr_beq $end
$var reg 1 _" instr_bge $end
$var reg 1 `" instr_bgeu $end
$var reg 1 a" instr_blt $end
$var reg 1 b" instr_bltu $end
$var reg 1 c" instr_bne $end
$var reg 1 d" instr_ecall_ebreak $end
$var reg 1 e" instr_fence $end
$var reg 1 f" instr_getq $end
$var reg 1 g" instr_jal $end
$var reg 1 h" instr_jalr $end
$var reg 1 i" instr_lb $end
$var reg 1 j" instr_lbu $end
$var reg 1 k" instr_lh $end
$var reg 1 l" instr_lhu $end
$var reg 1 m" instr_lui $end
$var reg 1 n" instr_lw $end
$var reg 1 o" instr_maskirq $end
$var reg 1 p" instr_or $end
$var reg 1 q" instr_ori $end
$var reg 1 r" instr_rdcycle $end
$var reg 1 s" instr_rdcycleh $end
$var reg 1 t" instr_rdinstr $end
$var reg 1 u" instr_rdinstrh $end
$var reg 1 v" instr_retirq $end
$var reg 1 w" instr_sb $end
$var reg 1 x" instr_setq $end
$var reg 1 y" instr_sh $end
$var reg 1 z" instr_sll $end
$var reg 1 {" instr_slli $end
$var reg 1 |" instr_slt $end
$var reg 1 }" instr_slti $end
$var reg 1 ~" instr_sltiu $end
$var reg 1 !# instr_sltu $end
$var reg 1 "# instr_sra $end
$var reg 1 ## instr_srai $end
$var reg 1 $# instr_srl $end
$var reg 1 %# instr_srli $end
$var reg 1 &# instr_sub $end
$var reg 1 '# instr_sw $end
$var reg 1 (# instr_timer $end
$var reg 1 )# instr_waitirq $end
$var reg 1 *# instr_xor $end
$var reg 1 +# instr_xori $end
$var reg 1 ,# irq_active $end
$var reg 1 -# irq_delay $end
$var reg 32 .# irq_mask [31:0] $end
$var reg 32 /# irq_pending [31:0] $end
$var reg 2 0# irq_state [1:0] $end
$var reg 1 1# is_alu_reg_imm $end
$var reg 1 2# is_alu_reg_reg $end
$var reg 1 3# is_beq_bne_blt_bge_bltu_bgeu $end
$var reg 1 4# is_compare $end
$var reg 1 5# is_jalr_addi_slti_sltiu_xori_ori_andi $end
$var reg 1 6# is_lb_lh_lw_lbu_lhu $end
$var reg 1 7# is_lbu_lhu_lw $end
$var reg 1 8# is_lui_auipc_jal $end
$var reg 1 9# is_lui_auipc_jal_jalr_addi_add_sub $end
$var reg 1 :# is_sb_sh_sw $end
$var reg 1 ;# is_sll_srl_sra $end
$var reg 1 <# is_slli_srli_srai $end
$var reg 1 =# is_slti_blt_slt $end
$var reg 1 ># is_sltiu_bltu_sltu $end
$var reg 1 ?# last_mem_valid $end
$var reg 1 @# latched_branch $end
$var reg 1 A# latched_compr $end
$var reg 1 B# latched_is_lb $end
$var reg 1 C# latched_is_lh $end
$var reg 1 D# latched_is_lu $end
$var reg 5 E# latched_rd [4:0] $end
$var reg 1 F# latched_stalu $end
$var reg 1 G# latched_store $end
$var reg 1 H# latched_trace $end
$var reg 32 I# mem_addr [31:0] $end
$var reg 1 J# mem_do_prefetch $end
$var reg 1 K# mem_do_rdata $end
$var reg 1 L# mem_do_rinst $end
$var reg 1 M# mem_do_wdata $end
$var reg 1 ) mem_instr $end
$var reg 1 N# mem_la_firstword_reg $end
$var reg 1 O# mem_la_secondword $end
$var reg 32 P# mem_la_wdata [31:0] $end
$var reg 4 Q# mem_la_wstrb [3:0] $end
$var reg 32 R# mem_rdata_q [31:0] $end
$var reg 32 S# mem_rdata_word [31:0] $end
$var reg 2 T# mem_state [1:0] $end
$var reg 1 ( mem_valid $end
$var reg 32 U# mem_wdata [31:0] $end
$var reg 2 V# mem_wordsize [1:0] $end
$var reg 4 W# mem_wstrb [3:0] $end
$var reg 64 X# new_ascii_instr [63:0] $end
$var reg 32 Y# next_insn_opcode [31:0] $end
$var reg 32 Z# next_irq_pending [31:0] $end
$var reg 32 [# pcpi_insn [31:0] $end
$var reg 32 \# pcpi_int_rd [31:0] $end
$var reg 1 ]# pcpi_int_ready $end
$var reg 1 ^# pcpi_int_wait $end
$var reg 1 _# pcpi_int_wr $end
$var reg 1 `# pcpi_timeout $end
$var reg 1 a# pcpi_valid $end
$var reg 1 b# prefetched_high_word $end
$var reg 64 c# q_ascii_instr [63:0] $end
$var reg 32 d# q_insn_imm [31:0] $end
$var reg 32 e# q_insn_opcode [31:0] $end
$var reg 5 f# q_insn_rd [4:0] $end
$var reg 5 g# q_insn_rs1 [4:0] $end
$var reg 5 h# q_insn_rs2 [4:0] $end
$var reg 32 i# reg_next_pc [31:0] $end
$var reg 32 j# reg_op1 [31:0] $end
$var reg 32 k# reg_op2 [31:0] $end
$var reg 32 l# reg_out [31:0] $end
$var reg 32 m# reg_pc [31:0] $end
$var reg 5 n# reg_sh [4:0] $end
$var reg 1 o# set_mem_do_rdata $end
$var reg 1 p# set_mem_do_rinst $end
$var reg 1 q# set_mem_do_wdata $end
$var reg 32 r# timer [31:0] $end
$var reg 36 s# trace_data [35:0] $end
$var reg 1 t# trace_valid $end
$var reg 1 u# trap $end
$scope begin genblk1 $end
$upscope $end
$scope begin genblk2 $end
$upscope $end
$scope begin genblk3 $end
$upscope $end
$scope task empty_statement $end
$upscope $end
$upscope $end
$upscope $end
$upscope $end
$enddefinitions $end
$comment Show the parameter values. $end
$dumpall
b101 !"
b100000 ~
b100000 }
b0 |
b1 {
b10 z
b10000000 y
b10 x
b100 w
b1 v
b10000 u
b100000 t
b1000000 s
b1000 r
0q
1p
0o
0n
b100000000000000000000000000000000000 m
b100000000000000000000000000000000 l
b1000000000000000000000000000000000 k
b11111111111111111111111111111111 j
0i
b0 h
b10000 g
b0 f
0e
b11111111111111111111111111111111 d
0c
1b
1a
0`
0_
1^
1]
0\
0[
0Z
1Y
1X
0W
1V
1U
0T
b101 "
$end
#0
$dumpvars
0u#
0t#
bx s#
b0 r#
0q#
0p#
0o#
bx n#
b0 m#
bx l#
bx k#
bx j#
b0 i#
bx h#
bx g#
bx f#
bx e#
bx d#
bx c#
0b#
0a#
0`#
0_#
0^#
0]#
bx \#
bx [#
b0 Z#
bx Y#
b0 X#
bx W#
bx V#
bx U#
b0 T#
bx S#
bx R#
bx Q#
bx P#
0O#
0N#
0M#
0L#
0K#
0J#
bx I#
0H#
0G#
0F#
bx E#
0D#
0C#
0B#
xA#
0@#
0?#
x>#
x=#
x<#
x;#
x:#
x9#
x8#
x7#
x6#
x5#
04#
03#
x2#
x1#
b0 0#
b0 /#
b11111111111111111111111111111111 .#
0-#
0,#
0+#
0*#
x)#
x(#
x'#
0&#
x%#
0$#
x##
0"#
0!#
0~"
0}"
0|"
x{"
0z"
xy"
xx"
xw"
xv"
xu"
xt"
xs"
xr"
0q"
0p"
xo"
xn"
xm"
xl"
xk"
xj"
xi"
xh"
xg"
xf"
0e"
xd"
0c"
0b"
0a"
0`"
0_"
0^"
x]"
0\"
0["
0Z"
0Y"
b0 X"
0W"
xV"
xU"
xT"
0S"
bx R"
bx Q"
bx P"
bx O"
bx N"
bx M"
0L"
xK"
bx J"
xI"
bx H"
xG"
bx F"
bx E"
bx D"
bx C"
bx B"
bx A"
b110011001100101011101000110001101101000 @"
bx ?"
bx >"
0="
bx <"
bx ;"
bx :"
b1000000 9"
b0 8"
b0 7"
x6"
x5"
04"
bx 3"
bx 2"
bx 1"
bx 0"
bx /"
bx ."
0-"
0,"
bx +"
bx *"
bx )"
x("
x'"
bx &"
x%"
x$"
x#"
bx ""
xS
0R
bx00 Q
bx P
b0 O
zN
zM
bx L
bx K
zJ
bz I
0H
0G
0F
bx E
0D
0C
0B
bx A
0@
bx ?
bx >
0=
0<
0;
0:
09
08
x7
bz 6
x5
bx 4
bx 3
02
01
bx 0
x/
bx .
0-
bx ,
bx +
bx *
x)
0(
bx '
bx &
0%
0$
1#
bx !
$end
#5000
0#
#10000
07
0T"
0U"
05"
0>#
0=#
b0 Z#
1#
#15000
0#
#20000
0G"
0V"
b0 Z#
1#
#25000
0#
#30000
b0 Z#
1#
#35000
0#
#40000
b0 Z#
1#
#45000
0#
#50000
b0 Z#
1#
#55000
0#
#60000
b0 Z#
1#
#65000
0#
#70000
b0 Z#
1#
#75000
0#
#80000
b0 Z#
1#
#85000
0#
#90000
b0 Z#
1#
#95000
0#
#100000
b0 Z#
1#
#105000
0#
#110000
b0 Z#
1#
#115000
0#
#120000
b0 Z#
1#
#125000
0#
#130000
b0 Z#
1#
#135000
0#
#140000
b0 Z#
1#
#145000
0#
#150000
b0 Z#
1#
#155000
0#
#160000
b0 Z#
1#
#165000
0#
#170000
b0 Z#
1#
#175000
0#
#180000
b0 Z#
1#
#185000
0#
#190000
b0 Z#
1#
#195000
0#
#200000
1%
1$
b0 Z#
1#
#205000
0#
#210000
1;
b0 Q
b1111 Q#
bx /#
b0 V#
1R
1L#
b1 7"
bx >"
bx Z#
1#
#215000
0#
#220000
0;
b0 !
b0 +
b1 T#
1/
1)
12
1(
b0 4
b0 &
b0 W#
b0 .
b0 *
b0 I#
b10 7"
bx >"
1#
#225000
0#
#230000
18
b10111 ?
b10111 P
1@
b10111 S#
b10111 0
b10111 ,
b10111 >
11
1-
b11 7"
1?#
bx >"
1#
#235000
0#
#240000
08
bx00 Q
17
0@
b0 ;"
b0 :"
05
b110000101110101011010010111000001100011 X#
b0 T#
02
0(
0?#
b10111 Y#
b10111 R#
06"
b0 R"
b0 Q"
b0 O"
b0 N"
02#
01#
0:#
06#
0)#
0v"
0h"
0g"
1]"
0m"
0R
0L#
1U"
b100 7"
01
0-
bx >"
1#
#245000
0#
#250000
1;
b100 Q
07
b11011000110010001011111011100100111001100110001 @"
b100 O
b110000101110101011010010111000001100011 X#
b0 D"
b0 F"
b0 E"
b0 B"
b10111 C"
b110000101110101011010010111000001100011 ?"
b100000 9"
1R
1J#
b1 8"
b100 i#
0A#
b0 E#
1V"
0U"
b101 7"
0K"
0I"
b0 M"
0;#
05#
0<#
0(#
0o"
0x"
0f"
0d"
0S
0u"
0t"
0s"
0r"
0##
0%#
0{"
0'#
0y"
0w"
0l"
0j"
0n"
0k"
0i"
09#
18#
b0 A"
1L"
1G"
bx >"
1#
#255000
0#
#260000
0;
b100 !
b100 +
b1100101011110000110010101100011 @"
b0 &"
b0 P#
b0 +"
b0 *"
0%"
0$"
1#"
b0 ""
b1 T#
12
1(
b100 .
b100 *
b100 I#
b0 1"
b0 3"
b0 2"
b10111 0"
b0 /"
b110000101110101011010010111000001100011 ."
0G"
b0 f#
b0 h#
b0 g#
b10111 e#
b0 d#
b110000101110101011010010111000001100011 c#
07#
19#
b1000 9"
1L#
b0 L
b0 k#
b0 K
b0 j#
0V"
b110 7"
1#
#265000
0#
#270000
18
b10001 ?
b10001 P
1@
b10001 S#
b110011001100101011101000110001101101000 @"
1="
b0 <"
b10001 0
b10001 ,
b10001 >
11
1-
b1000000 9"
1F#
1G#
b0 l#
b111 7"
b0 )"
1?#
1#
#275000
0#
#280000
08
b0 Q
17
0@
b0 X#
15
bx <"
0="
b0 T#
02
0(
0?#
b10001 Y#
b10001 R#
0]"
0R
0L#
0J#
0F#
0G#
b100 m#
1U"
b1000 7"
bx l#
01
0-
bx >"
1#
#285000
0#
#290000
1;
b1000 Q
07
b11011000110010001011111011100100111001100110001 @"
b1000 O
bx &"
b0x B"
b10001 C"
b0 ?"
b100000 9"
1R
1J#
b10 8"
b1000 i#
1V"
0U"
b1001 7"
b0x M"
09#
08#
b100 A"
1G"
bx >"
1#
#295000
0#
#300000
0;
b0 !
b0 +
b1110100011100100110000101110000 @"
bx P#
bx +"
bx *"
x%"
x$"
x#"
bx ""
b1 T#
12
1(
b1000 .
b1000 *
b1000 I#
b10001 0"
b0x /"
b0 ."
0G"
b10001 e#
b0x d#
b0 c#
b10000000 9"
bx L
bx k#
bx K
bx j#
0V"
b1010 7"
bx )"
1#
#305000
0#
#310000
b0 ?
b0 P
1@
b0 S#
b0 0
b0 ,
b0 >
11
1-
1u#
b1011 7"
1?#
1#
#315000
0#
#320000
0@
0?#
b0 Y#
b0 R#
0L"
b1100 7"
1u#
01
0-
02
0(
1#
#325000
0#
#330000
b1101 7"
1u#
1#
#335000
0#
#340000
b1110 7"
1u#
1#
#345000
0#
#350000
b1111 7"
1u#
1#
#355000
0#
#360000
b10000 7"
1u#
1#
#365000
0#
#370000
b10001 7"
1u#
1#
#375000
0#
#380000
b10010 7"
1u#
1#
#385000
0#
#390000
b10011 7"
1u#
1#
#395000
0#
#400000
b10100 7"
1u#
1#
#405000
0#
#410000
b10101 7"
1u#
1#
#415000
0#
#420000
b10110 7"
1u#
1#
#425000
0#
#430000
b10111 7"
1u#
1#
#435000
0#
#440000
b11000 7"
1u#
1#
#445000
0#
#450000
b11001 7"
1u#
1#
#455000
0#
#460000
b11010 7"
1u#
1#
#465000
0#
#470000
b11011 7"
1u#
1#
#475000
0#
#480000
b11100 7"
1u#
1#
#485000
0#
#490000
b11101 7"
1u#
1#
#495000
0#
#500000
b11110 7"
1u#
1#
#505000
0#
#510000
b11111 7"
1u#
1#
#515000
0#
#520000
b100000 7"
1u#
1#
#525000
0#
#530000
b100001 7"
1u#
1#
#535000
0#
#540000
b100010 7"
1u#
1#
#545000
0#
#550000
b100011 7"
1u#
1#
#555000
0#
#560000
b100100 7"
1u#
1#
#565000
0#
#570000
b100101 7"
1u#
1#
#575000
0#
#580000
b100110 7"
1u#
1#
#585000
0#
#590000
b100111 7"
1u#
1#
#595000
0#
#600000
b101000 7"
1u#
1#
#605000
0#
#610000
b101001 7"
1u#
1#
#615000
0#
#620000
b101010 7"
1u#
1#
#625000
0#
#630000
b101011 7"
1u#
1#
#635000
0#
#640000
b101100 7"
1u#
1#
#645000
0#
#650000
b101101 7"
1u#
1#
#655000
0#
#660000
b101110 7"
1u#
1#
#665000
0#
#670000
b101111 7"
1u#
1#
#675000
0#
#680000
b110000 7"
1u#
1#
#685000
0#
#690000
b110001 7"
1u#
1#
#695000
0#
#700000
b110010 7"
1u#
1#
#705000
0#
#710000
b110011 7"
1u#
1#
#715000
0#
#720000
b110100 7"
1u#
1#
#725000
0#
#730000
b110101 7"
1u#
1#
#735000
0#
#740000
b110110 7"
1u#
1#
#745000
0#
#750000
b110111 7"
1u#
1#
#755000
0#
#760000
b111000 7"
1u#
1#
#765000
0#
#770000
b111001 7"
1u#
1#
#775000
0#
#780000
b111010 7"
1u#
1#
#785000
0#
#790000
b111011 7"
1u#
1#
#795000
0#
#800000
b111100 7"
1u#
1#
#805000
0#
#810000
b111101 7"
1u#
1#
#815000
0#
#820000
b111110 7"
1u#
1#
#825000
0#
#830000
b111111 7"
1u#
1#
#835000
0#
#840000
b1000000 7"
1u#
1#
#845000
0#
#850000
b1000001 7"
1u#
1#
#855000
0#
#860000
b1000010 7"
1u#
1#
#865000
0#
#870000
b1000011 7"
1u#
1#
#875000
0#
#880000
b1000100 7"
1u#
1#
#885000
0#
#890000
b1000101 7"
1u#
1#
#895000
0#
#900000
b1000110 7"
1u#
1#
#905000
0#
#910000
b1000111 7"
1u#
1#
#915000
0#
#920000
b1001000 7"
1u#
1#
#925000
0#
#930000
b1001001 7"
1u#
1#
#935000
0#
#940000
b1001010 7"
1u#
1#
#945000
0#
#950000
b1001011 7"
1u#
1#
#955000
0#
#960000
b1001100 7"
1u#
1#
#965000
0#
#970000
b1001101 7"
1u#
1#
#975000
0#
#980000
b1001110 7"
1u#
1#
#985000
0#
#990000
b1001111 7"
1u#
1#
#995000
0#
#1000000
b1010000 7"
1u#
1#
#1005000
0#
#1010000
b1010001 7"
1u#
1#
#1015000
0#
#1020000
b1010010 7"
1u#
1#
#1025000
0#
#1030000
b1010011 7"
1u#
1#
#1035000
0#
#1040000
b1010100 7"
1u#
1#
#1045000
0#
#1050000
b1010101 7"
1u#
1#
#1055000
0#
#1060000
b1010110 7"
1u#
1#
#1065000
0#
#1070000
b1010111 7"
1u#
1#
#1075000
0#
#1080000
b1011000 7"
1u#
1#
#1085000
0#
#1090000
b1011001 7"
1u#
1#
#1095000
0#
#1100000
b1011010 7"
1u#
1#
#1105000
0#
#1110000
b1011011 7"
1u#
1#
#1115000
0#
#1120000
b1011100 7"
1u#
1#
#1125000
0#
#1130000
b1011101 7"
1u#
1#
#1135000
0#
#1140000
b1011110 7"
1u#
1#
#1145000
0#
#1150000
b1011111 7"
1u#
1#
#1155000
0#
#1160000
b1100000 7"
1u#
1#
#1165000
0#
#1170000
b1100001 7"
1u#
1#
#1175000
0#
#1180000
b1100010 7"
1u#
1#
#1185000
0#
#1190000
b1100011 7"
1u#
1#
#1195000
0#
#1200000
b1100100 7"
1u#
1#
#1205000
0#
#1210000
b1100101 7"
1u#
1#
#1215000
0#
#1220000
b1100110 7"
1u#
1#
#1225000
0#
#1230000
b1100111 7"
1u#
1#
#1235000
0#
#1240000
b1101000 7"
1u#
1#
#1245000
0#
#1250000
b1101001 7"
1u#
1#
#1255000
0#
#1260000
b1101010 7"
1u#
1#
#1265000
0#
#1270000
b1101011 7"
1u#
1#
#1275000
0#
#1280000
b1101100 7"
1u#
1#
#1285000
0#
#1290000
b1101101 7"
1u#
1#
#1295000
0#
#1300000
b1101110 7"
1u#
1#
#1305000
0#
#1310000
b1101111 7"
1u#
1#
#1315000
0#
#1320000
b1110000 7"
1u#
1#
#1325000
0#
#1330000
b1110001 7"
1u#
1#
#1335000
0#
#1340000
b1110010 7"
1u#
1#
#1345000
0#
#1350000
b1110011 7"
1u#
1#
#1355000
0#
#1360000
b1110100 7"
1u#
1#
#1365000
0#
#1370000
b1110101 7"
1u#
1#
#1375000
0#
#1380000
b1110110 7"
1u#
1#
#1385000
0#
#1390000
b1110111 7"
1u#
1#
#1395000
0#
#1400000
b1111000 7"
1u#
1#
#1405000
0#
#1410000
b1111001 7"
1u#
1#
#1415000
0#
#1420000
b1111010 7"
1u#
1#
#1425000
0#
#1430000
b1111011 7"
1u#
1#
#1435000
0#
#1440000
b1111100 7"
1u#
1#
#1445000
0#
#1450000
b1111101 7"
1u#
1#
#1455000
0#
#1460000
b1111110 7"
1u#
1#
#1465000
0#
#1470000
b1111111 7"
1u#
1#
#1475000
0#
#1480000
b10000000 7"
1u#
1#
#1485000
0#
#1490000
b10000001 7"
1u#
1#
#1495000
0#
#1500000
b10000010 7"
1u#
1#
#1505000
0#
#1510000
b10000011 7"
1u#
1#
#1515000
0#
#1520000
b10000100 7"
1u#
1#
#1525000
0#
#1530000
b10000101 7"
1u#
1#
#1535000
0#
#1540000
b10000110 7"
1u#
1#
#1545000
0#
#1550000
b10000111 7"
1u#
1#
#1555000
0#
#1560000
b10001000 7"
1u#
1#
#1565000
0#
#1570000
b10001001 7"
1u#
1#
#1575000
0#
#1580000
b10001010 7"
1u#
1#
#1585000
0#
#1590000
b10001011 7"
1u#
1#
#1595000
0#
#1600000
b10001100 7"
1u#
1#
#1605000
0#
#1610000
b10001101 7"
1u#
1#
#1615000
0#
#1620000
b10001110 7"
1u#
1#
#1625000
0#
#1630000
b10001111 7"
1u#
1#
#1635000
0#
#1640000
b10010000 7"
1u#
1#
#1645000
0#
#1650000
b10010001 7"
1u#
1#
#1655000
0#
#1660000
b10010010 7"
1u#
1#
#1665000
0#
#1670000
b10010011 7"
1u#
1#
#1675000
0#
#1680000
b10010100 7"
1u#
1#
#1685000
0#
#1690000
b10010101 7"
1u#
1#
#1695000
0#
#1700000
b10010110 7"
1u#
1#
#1705000
0#
#1710000
b10010111 7"
1u#
1#
#1715000
0#
#1720000
b10011000 7"
1u#
1#
#1725000
0#
#1730000
b10011001 7"
1u#
1#
#1735000
0#
#1740000
b10011010 7"
1u#
1#
#1745000
0#
#1750000
b10011011 7"
1u#
1#
#1755000
0#
#1760000
b10011100 7"
1u#
1#
#1765000
0#
#1770000
b10011101 7"
1u#
1#
#1775000
0#
#1780000
b10011110 7"
1u#
1#
#1785000
0#
#1790000
b10011111 7"
1u#
1#
#1795000
0#
#1800000
b10100000 7"
1u#
1#
#1805000
0#
#1810000
b10100001 7"
1u#
1#
#1815000
0#
#1820000
b10100010 7"
1u#
1#
#1825000
0#
#1830000
b10100011 7"
1u#
1#
#1835000
0#
#1840000
b10100100 7"
1u#
1#
#1845000
0#
#1850000
b10100101 7"
1u#
1#
#1855000
0#
#1860000
b10100110 7"
1u#
1#
#1865000
0#
#1870000
b10100111 7"
1u#
1#
#1875000
0#
#1880000
b10101000 7"
1u#
1#
#1885000
0#
#1890000
b10101001 7"
1u#
1#
#1895000
0#
#1900000
b10101010 7"
1u#
1#
#1905000
0#
#1910000
b10101011 7"
1u#
1#
#1915000
0#
#1920000
b10101100 7"
1u#
1#
#1925000
0#
#1930000
b10101101 7"
1u#
1#
#1935000
0#
#1940000
b10101110 7"
1u#
1#
#1945000
0#
#1950000
b10101111 7"
1u#
1#
#1955000
0#
#1960000
b10110000 7"
1u#
1#
#1965000
0#
#1970000
b10110001 7"
1u#
1#
#1975000
0#
#1980000
b10110010 7"
1u#
1#
#1985000
0#
#1990000
b10110011 7"
1u#
1#
#1995000
0#
#2000000
b10110100 7"
1u#
1#
#2005000
0#
#2010000
b10110101 7"
1u#
1#
#2015000
0#
#2020000
b10110110 7"
1u#
1#
#2025000
0#
#2030000
b10110111 7"
1u#
1#
#2035000
0#
#2040000
b10111000 7"
1u#
1#
#2045000
0#
#2050000
b10111001 7"
1u#
1#
#2055000
0#
#2060000
b10111010 7"
1u#
1#
#2065000
0#
#2070000
b10111011 7"
1u#
1#
#2075000
0#
#2080000
b10111100 7"
1u#
1#
#2085000
0#
#2090000
b10111101 7"
1u#
1#
#2095000
0#
#2100000
b10111110 7"
1u#
1#
#2105000
0#
#2110000
b10111111 7"
1u#
1#
#2115000
0#
#2120000
b11000000 7"
1u#
1#
#2125000
0#
#2130000
b11000001 7"
1u#
1#
#2135000
0#
#2140000
b11000010 7"
1u#
1#
#2145000
0#
#2150000
b11000011 7"
1u#
1#
#2155000
0#
#2160000
b11000100 7"
1u#
1#
#2165000
0#
#2170000
b11000101 7"
1u#
1#
#2175000
0#
#2180000
b11000110 7"
1u#
1#
#2185000
0#
#2190000
b11000111 7"
1u#
1#
#2195000
0#
#2200000
b11001000 7"
1u#
1#
#2205000
0#
#2210000
b11001001 7"
1u#
1#
#2215000
0#
#2220000
b11001010 7"
1u#
1#
#2225000
0#
#2230000
b11001011 7"
1u#
1#
#2235000
0#
#2240000
b11001100 7"
1u#
1#
#2245000
0#
#2250000
b11001101 7"
1u#
1#
#2255000
0#
#2260000
b11001110 7"
1u#
1#
#2265000
0#
#2270000
b11001111 7"
1u#
1#
#2275000
0#
#2280000
b11010000 7"
1u#
1#
#2285000
0#
#2290000
b11010001 7"
1u#
1#
#2295000
0#
#2300000
b11010010 7"
1u#
1#
#2305000
0#
